%!PS-Adobe-3.0 EPSF-3.0
%%Title: focus_graph.eps
%%Creator: matplotlib version 2.0.0, http://matplotlib.org/
%%CreationDate: Mon Nov 20 22:01:29 2017
%%Orientation: portrait
%%BoundingBox: 105 257 506 534
%%EndComments
%%BeginProlog
/mpldict 8 dict def
mpldict begin
/m { moveto } bind def
/l { lineto } bind def
/r { rlineto } bind def
/c { curveto } bind def
/cl { closepath } bind def
/box {
m
1 index 0 r
0 exch r
neg 0 r
cl
} bind def
/clipbox {
box
clip
newpath
} bind def
%!PS-Adobe-3.0 Resource-Font
%%Title: DejaVu Sans
%%Copyright: Copyright (c) 2003 by Bitstream, Inc. All Rights Reserved. Copyright (c) 2006 by Tavmjong Bah. All Rights Reserved. DejaVu changes are in public domain 
%%Creator: Converted from TrueType to type 3 by PPR
25 dict begin
/_d{bind def}bind def
/_m{moveto}_d
/_l{lineto}_d
/_cl{closepath eofill}_d
/_c{curveto}_d
/_sc{7 -1 roll{setcachedevice}{pop pop pop pop pop pop}ifelse}_d
/_e{exec}_d
/FontName /DejaVuSans def
/PaintType 0 def
/FontMatrix[.001 0 0 .001 0 0]def
/FontBBox[-1021 -463 1793 1232]def
/FontType 3 def
/Encoding [ /space /period /zero /one /five /seven /eight /nine /C /D /E /S /T /a /c /d /e /f /h /i /l /m /n /o /p /r /s /t /v /w /y ] def
/FontInfo 10 dict dup begin
/FamilyName (DejaVu Sans) def
/FullName (DejaVu Sans) def
/Notice (Copyright (c) 2003 by Bitstream, Inc. All Rights Reserved. Copyright (c) 2006 by Tavmjong Bah. All Rights Reserved. DejaVu changes are in public domain ) def
/Weight (Book) def
/Version (Version 2.35) def
/ItalicAngle 0.0 def
/isFixedPitch false def
/UnderlinePosition -130 def
/UnderlineThickness 90 def
end readonly def
/CharStrings 31 dict dup begin
/space{318 0 0 0 0 0 _sc
}_d
/period{318 0 107 0 210 124 _sc
107 124 _m
210 124 _l
210 0 _l
107 0 _l
107 124 _l
_cl}_d
/zero{636 0 66 -13 570 742 _sc
318 664 _m
267 664 229 639 203 589 _c
177 539 165 464 165 364 _c
165 264 177 189 203 139 _c
229 89 267 64 318 64 _c
369 64 407 89 433 139 _c
458 189 471 264 471 364 _c
471 464 458 539 433 589 _c
407 639 369 664 318 664 _c
318 742 _m
399 742 461 709 505 645 _c
548 580 570 486 570 364 _c
570 241 548 147 505 83 _c
461 19 399 -13 318 -13 _c
236 -13 173 19 130 83 _c
87 147 66 241 66 364 _c
66 486 87 580 130 645 _c
173 709 236 742 318 742 _c
_cl}_d
/one{636 0 110 0 544 729 _sc
124 83 _m
285 83 _l
285 639 _l
110 604 _l
110 694 _l
284 729 _l
383 729 _l
383 83 _l
544 83 _l
544 0 _l
124 0 _l
124 83 _l
_cl}_d
/five{{636 0 77 -13 549 729 _sc
108 729 _m
495 729 _l
495 646 _l
198 646 _l
198 467 _l
212 472 227 476 241 478 _c
255 480 270 482 284 482 _c
365 482 429 459 477 415 _c
525 370 549 310 549 234 _c
549 155 524 94 475 51 _c
426 8 357 -13 269 -13 _c
238 -13 207 -10 175 -6 _c
143 -1 111 6 77 17 _c
77 116 _l
106 100 136 88 168 80 _c
199 72 232 69 267 69 _c
}_e{323 69 368 83 401 113 _c
433 143 450 183 450 234 _c
450 284 433 324 401 354 _c
368 384 323 399 267 399 _c
241 399 214 396 188 390 _c
162 384 135 375 108 363 _c
108 729 _l
_cl}_e}_d
/seven{636 0 82 0 551 729 _sc
82 729 _m
551 729 _l
551 687 _l
286 0 _l
183 0 _l
432 646 _l
82 646 _l
82 729 _l
_cl}_d
/eight{{636 0 68 -13 568 742 _sc
318 346 _m
271 346 234 333 207 308 _c
180 283 167 249 167 205 _c
167 161 180 126 207 101 _c
234 76 271 64 318 64 _c
364 64 401 76 428 102 _c
455 127 469 161 469 205 _c
469 249 455 283 429 308 _c
402 333 365 346 318 346 _c
219 388 _m
177 398 144 418 120 447 _c
96 476 85 511 85 553 _c
85 611 105 657 147 691 _c
188 725 245 742 318 742 _c
}_e{390 742 447 725 489 691 _c
530 657 551 611 551 553 _c
551 511 539 476 515 447 _c
491 418 459 398 417 388 _c
464 377 501 355 528 323 _c
554 291 568 251 568 205 _c
568 134 546 80 503 43 _c
459 5 398 -13 318 -13 _c
237 -13 175 5 132 43 _c
89 80 68 134 68 205 _c
68 251 81 291 108 323 _c
134 355 171 377 219 388 _c
183 544 _m
183 506 194 476 218 455 _c
}_e{242 434 275 424 318 424 _c
360 424 393 434 417 455 _c
441 476 453 506 453 544 _c
453 582 441 611 417 632 _c
393 653 360 664 318 664 _c
275 664 242 653 218 632 _c
194 611 183 582 183 544 _c
_cl}_e}_d
/nine{{636 0 63 -13 566 742 _sc
110 15 _m
110 105 _l
134 93 159 84 185 78 _c
210 72 235 69 260 69 _c
324 69 374 90 408 134 _c
442 178 462 244 468 334 _c
448 306 424 284 396 269 _c
367 254 335 247 300 247 _c
226 247 168 269 126 313 _c
84 357 63 417 63 494 _c
63 568 85 628 129 674 _c
173 719 232 742 306 742 _c
390 742 455 709 499 645 _c
543 580 566 486 566 364 _c
}_e{566 248 538 157 484 89 _c
429 21 356 -13 264 -13 _c
239 -13 214 -10 189 -6 _c
163 -2 137 5 110 15 _c
306 324 _m
350 324 385 339 411 369 _c
437 399 450 441 450 494 _c
450 546 437 588 411 618 _c
385 648 350 664 306 664 _c
262 664 227 648 201 618 _c
175 588 162 546 162 494 _c
162 441 175 399 201 369 _c
227 339 262 324 306 324 _c
_cl}_e}_d
/C{{698 0 56 -13 644 742 _sc
644 673 _m
644 569 _l
610 599 575 622 537 638 _c
499 653 460 661 418 661 _c
334 661 270 635 226 584 _c
182 533 160 460 160 364 _c
160 268 182 194 226 143 _c
270 92 334 67 418 67 _c
460 67 499 74 537 90 _c
575 105 610 128 644 159 _c
644 56 _l
609 32 572 15 534 4 _c
496 -7 455 -13 412 -13 _c
302 -13 215 20 151 87 _c
}_e{87 154 56 246 56 364 _c
56 481 87 573 151 641 _c
215 708 302 742 412 742 _c
456 742 497 736 535 725 _c
573 713 610 696 644 673 _c
_cl}_e}_d
/D{770 0 98 0 711 729 _sc
197 648 _m
197 81 _l
316 81 _l
416 81 490 103 537 149 _c
583 195 607 267 607 365 _c
607 463 583 534 537 580 _c
490 625 416 648 316 648 _c
197 648 _l
98 729 _m
301 729 _l
442 729 546 699 612 641 _c
678 582 711 490 711 365 _c
711 239 677 147 611 88 _c
545 29 441 0 301 0 _c
98 0 _l
98 729 _l
_cl}_d
/E{632 0 98 0 568 729 _sc
98 729 _m
559 729 _l
559 646 _l
197 646 _l
197 430 _l
544 430 _l
544 347 _l
197 347 _l
197 83 _l
568 83 _l
568 0 _l
98 0 _l
98 729 _l
_cl}_d
/S{{635 0 66 -13 579 742 _sc
535 705 _m
535 609 _l
497 627 462 640 429 649 _c
395 657 363 662 333 662 _c
279 662 237 651 208 631 _c
179 610 165 580 165 542 _c
165 510 174 485 194 469 _c
213 452 250 439 304 429 _c
364 417 _l
437 403 491 378 526 343 _c
561 307 579 260 579 201 _c
579 130 555 77 508 41 _c
460 5 391 -13 300 -13 _c
265 -13 228 -9 189 -2 _c
}_e{150 5 110 16 69 32 _c
69 134 _l
109 111 148 94 186 83 _c
224 71 262 66 300 66 _c
356 66 399 77 430 99 _c
460 121 476 152 476 194 _c
476 230 465 258 443 278 _c
421 298 385 313 335 323 _c
275 335 _l
201 349 148 372 115 404 _c
82 435 66 478 66 534 _c
66 598 88 649 134 686 _c
179 723 242 742 322 742 _c
356 742 390 739 426 733 _c
461 727 497 717 535 705 _c
}_e{_cl}_e}_d
/T{611 0 -2 0 614 729 _sc
-2 729 _m
614 729 _l
614 646 _l
355 646 _l
355 0 _l
256 0 _l
256 646 _l
-2 646 _l
-2 729 _l
_cl}_d
/a{{613 0 60 -13 522 560 _sc
343 275 _m
270 275 220 266 192 250 _c
164 233 150 205 150 165 _c
150 133 160 107 181 89 _c
202 70 231 61 267 61 _c
317 61 357 78 387 114 _c
417 149 432 196 432 255 _c
432 275 _l
343 275 _l
522 312 _m
522 0 _l
432 0 _l
432 83 _l
411 49 385 25 355 10 _c
325 -5 287 -13 243 -13 _c
187 -13 142 2 109 33 _c
76 64 60 106 60 159 _c
}_e{60 220 80 266 122 298 _c
163 329 224 345 306 345 _c
432 345 _l
432 354 _l
432 395 418 427 391 450 _c
364 472 326 484 277 484 _c
245 484 215 480 185 472 _c
155 464 127 453 100 439 _c
100 522 _l
132 534 164 544 195 550 _c
226 556 256 560 286 560 _c
365 560 424 539 463 498 _c
502 457 522 395 522 312 _c
_cl}_e}_d
/c{{550 0 55 -13 488 560 _sc
488 526 _m
488 442 _l
462 456 437 466 411 473 _c
385 480 360 484 334 484 _c
276 484 230 465 198 428 _c
166 391 150 339 150 273 _c
150 206 166 154 198 117 _c
230 80 276 62 334 62 _c
360 62 385 65 411 72 _c
437 79 462 90 488 104 _c
488 21 _l
462 9 436 0 410 -5 _c
383 -10 354 -13 324 -13 _c
242 -13 176 12 128 64 _c
}_e{79 115 55 185 55 273 _c
55 362 79 432 128 483 _c
177 534 244 560 330 560 _c
358 560 385 557 411 551 _c
437 545 463 537 488 526 _c
_cl}_e}_d
/d{{635 0 55 -13 544 760 _sc
454 464 _m
454 760 _l
544 760 _l
544 0 _l
454 0 _l
454 82 _l
435 49 411 25 382 10 _c
353 -5 319 -13 279 -13 _c
213 -13 159 13 117 65 _c
75 117 55 187 55 273 _c
55 359 75 428 117 481 _c
159 533 213 560 279 560 _c
319 560 353 552 382 536 _c
411 520 435 496 454 464 _c
148 273 _m
148 207 161 155 188 117 _c
215 79 253 61 301 61 _c
}_e{348 61 385 79 413 117 _c
440 155 454 207 454 273 _c
454 339 440 390 413 428 _c
385 466 348 485 301 485 _c
253 485 215 466 188 428 _c
161 390 148 339 148 273 _c
_cl}_e}_d
/e{{615 0 55 -13 562 560 _sc
562 296 _m
562 252 _l
149 252 _l
153 190 171 142 205 110 _c
238 78 284 62 344 62 _c
378 62 412 66 444 74 _c
476 82 509 95 541 113 _c
541 28 _l
509 14 476 3 442 -3 _c
408 -9 373 -13 339 -13 _c
251 -13 182 12 131 62 _c
80 112 55 181 55 268 _c
55 357 79 428 127 481 _c
175 533 241 560 323 560 _c
397 560 455 536 498 489 _c
}_e{540 441 562 377 562 296 _c
472 322 _m
471 371 457 410 431 440 _c
404 469 368 484 324 484 _c
274 484 234 469 204 441 _c
174 413 156 373 152 322 _c
472 322 _l
_cl}_e}_d
/f{352 0 23 0 371 760 _sc
371 760 _m
371 685 _l
285 685 _l
253 685 230 678 218 665 _c
205 652 199 629 199 595 _c
199 547 _l
347 547 _l
347 477 _l
199 477 _l
199 0 _l
109 0 _l
109 477 _l
23 477 _l
23 547 _l
109 547 _l
109 585 _l
109 645 123 690 151 718 _c
179 746 224 760 286 760 _c
371 760 _l
_cl}_d
/h{634 0 91 0 549 760 _sc
549 330 _m
549 0 _l
459 0 _l
459 327 _l
459 379 448 417 428 443 _c
408 469 378 482 338 482 _c
289 482 251 466 223 435 _c
195 404 181 362 181 309 _c
181 0 _l
91 0 _l
91 760 _l
181 760 _l
181 462 _l
202 494 227 519 257 535 _c
286 551 320 560 358 560 _c
420 560 468 540 500 501 _c
532 462 549 405 549 330 _c
_cl}_d
/i{278 0 94 0 184 760 _sc
94 547 _m
184 547 _l
184 0 _l
94 0 _l
94 547 _l
94 760 _m
184 760 _l
184 646 _l
94 646 _l
94 760 _l
_cl}_d
/l{278 0 94 0 184 760 _sc
94 760 _m
184 760 _l
184 0 _l
94 0 _l
94 760 _l
_cl}_d
/m{{974 0 91 0 889 560 _sc
520 442 _m
542 482 569 511 600 531 _c
631 550 668 560 711 560 _c
767 560 811 540 842 500 _c
873 460 889 403 889 330 _c
889 0 _l
799 0 _l
799 327 _l
799 379 789 418 771 444 _c
752 469 724 482 686 482 _c
639 482 602 466 575 435 _c
548 404 535 362 535 309 _c
535 0 _l
445 0 _l
445 327 _l
445 379 435 418 417 444 _c
398 469 369 482 331 482 _c
}_e{285 482 248 466 221 435 _c
194 404 181 362 181 309 _c
181 0 _l
91 0 _l
91 547 _l
181 547 _l
181 462 _l
201 495 226 520 255 536 _c
283 552 317 560 357 560 _c
397 560 430 550 458 530 _c
486 510 506 480 520 442 _c
_cl}_e}_d
/n{634 0 91 0 549 560 _sc
549 330 _m
549 0 _l
459 0 _l
459 327 _l
459 379 448 417 428 443 _c
408 469 378 482 338 482 _c
289 482 251 466 223 435 _c
195 404 181 362 181 309 _c
181 0 _l
91 0 _l
91 547 _l
181 547 _l
181 462 _l
202 494 227 519 257 535 _c
286 551 320 560 358 560 _c
420 560 468 540 500 501 _c
532 462 549 405 549 330 _c
_cl}_d
/o{612 0 55 -13 557 560 _sc
306 484 _m
258 484 220 465 192 427 _c
164 389 150 338 150 273 _c
150 207 163 156 191 118 _c
219 80 257 62 306 62 _c
354 62 392 80 420 118 _c
448 156 462 207 462 273 _c
462 337 448 389 420 427 _c
392 465 354 484 306 484 _c
306 560 _m
384 560 445 534 490 484 _c
534 433 557 363 557 273 _c
557 183 534 113 490 63 _c
445 12 384 -13 306 -13 _c
227 -13 165 12 121 63 _c
77 113 55 183 55 273 _c
55 363 77 433 121 484 _c
165 534 227 560 306 560 _c
_cl}_d
/p{{635 0 91 -207 580 560 _sc
181 82 _m
181 -207 _l
91 -207 _l
91 547 _l
181 547 _l
181 464 _l
199 496 223 520 252 536 _c
281 552 316 560 356 560 _c
422 560 476 533 518 481 _c
559 428 580 359 580 273 _c
580 187 559 117 518 65 _c
476 13 422 -13 356 -13 _c
316 -13 281 -5 252 10 _c
223 25 199 49 181 82 _c
487 273 _m
487 339 473 390 446 428 _c
418 466 381 485 334 485 _c
}_e{286 485 249 466 222 428 _c
194 390 181 339 181 273 _c
181 207 194 155 222 117 _c
249 79 286 61 334 61 _c
381 61 418 79 446 117 _c
473 155 487 207 487 273 _c
_cl}_e}_d
/r{411 0 91 0 411 560 _sc
411 463 _m
401 469 390 473 378 476 _c
366 478 353 480 339 480 _c
288 480 249 463 222 430 _c
194 397 181 350 181 288 _c
181 0 _l
91 0 _l
91 547 _l
181 547 _l
181 462 _l
199 495 224 520 254 536 _c
284 552 321 560 365 560 _c
371 560 378 559 386 559 _c
393 558 401 557 411 555 _c
411 463 _l
_cl}_d
/s{{521 0 54 -13 472 560 _sc
443 531 _m
443 446 _l
417 458 391 468 364 475 _c
336 481 308 485 279 485 _c
234 485 200 478 178 464 _c
156 450 145 430 145 403 _c
145 382 153 366 169 354 _c
185 342 217 330 265 320 _c
296 313 _l
360 299 405 279 432 255 _c
458 230 472 195 472 151 _c
472 100 452 60 412 31 _c
372 1 316 -13 246 -13 _c
216 -13 186 -10 154 -5 _c
}_e{122 0 89 8 54 20 _c
54 113 _l
87 95 120 82 152 74 _c
184 65 216 61 248 61 _c
290 61 323 68 346 82 _c
368 96 380 117 380 144 _c
380 168 371 187 355 200 _c
339 213 303 226 247 238 _c
216 245 _l
160 257 119 275 95 299 _c
70 323 58 356 58 399 _c
58 450 76 490 112 518 _c
148 546 200 560 268 560 _c
301 560 332 557 362 552 _c
391 547 418 540 443 531 _c
}_e{_cl}_e}_d
/t{392 0 27 0 368 702 _sc
183 702 _m
183 547 _l
368 547 _l
368 477 _l
183 477 _l
183 180 _l
183 135 189 106 201 94 _c
213 81 238 75 276 75 _c
368 75 _l
368 0 _l
276 0 _l
206 0 158 13 132 39 _c
106 65 93 112 93 180 _c
93 477 _l
27 477 _l
27 547 _l
93 547 _l
93 702 _l
183 702 _l
_cl}_d
/v{592 0 30 0 562 547 _sc
30 547 _m
125 547 _l
296 88 _l
467 547 _l
562 547 _l
357 0 _l
235 0 _l
30 547 _l
_cl}_d
/w{818 0 42 0 776 547 _sc
42 547 _m
132 547 _l
244 120 _l
356 547 _l
462 547 _l
574 120 _l
686 547 _l
776 547 _l
633 0 _l
527 0 _l
409 448 _l
291 0 _l
185 0 _l
42 547 _l
_cl}_d
/y{592 0 30 -207 562 547 _sc
322 -50 _m
296 -114 271 -157 247 -177 _c
223 -197 191 -207 151 -207 _c
79 -207 _l
79 -132 _l
132 -132 _l
156 -132 175 -126 189 -114 _c
203 -102 218 -75 235 -31 _c
251 9 _l
30 547 _l
125 547 _l
296 119 _l
467 547 _l
562 547 _l
322 -50 _l
_cl}_d
end readonly def

/BuildGlyph
 {exch begin
 CharStrings exch
 2 copy known not{pop /.notdef}if
 true 3 1 roll get exec
 end}_d

/BuildChar {
 1 index /Encoding get exch get
 1 index /BuildGlyph get exec
}_d

FontName currentdict end definefont pop
end
%%EndProlog
mpldict begin
105.162 257.346 translate
401.677 277.309 0 0 clipbox
gsave
-0 0 m
401.676562 0 l
401.676562 277.30875 l
-0 277.30875 l
cl
1.000 setgray
fill
grestore
gsave
50.1375 37.54375 m
384.9375 37.54375 l
384.9375 254.98375 l
50.1375 254.98375 l
cl
1.000 setgray
fill
grestore
0.800 setlinewidth
1 setlinejoin
0 setlinecap
[] 0 setdash
0.000 setgray
gsave
/o {
gsave
newpath
translate
0.8 setlinewidth
1 setlinejoin
0 setlinecap
0 0 m
0 -3.5 l

gsave
0.000 setgray
fill
grestore
stroke
grestore
} bind def
50.1375 37.5438 o
grestore
/DejaVuSans findfont
10.000 scalefont
setfont
gsave
43.778125 22.950000 translate
0.000000 rotate
0.000000 0.000000 m /seven glyphshow
6.362305 0.000000 m /zero glyphshow
grestore
gsave
/o {
gsave
newpath
translate
0.8 setlinewidth
1 setlinejoin
0 setlinecap
0 0 m
0 -3.5 l

gsave
0.000 setgray
fill
grestore
stroke
grestore
} bind def
105.938 37.5438 o
grestore
gsave
99.578125 22.950000 translate
0.000000 rotate
0.000000 0.000000 m /seven glyphshow
6.362305 0.000000 m /five glyphshow
grestore
gsave
/o {
gsave
newpath
translate
0.8 setlinewidth
1 setlinejoin
0 setlinecap
0 0 m
0 -3.5 l

gsave
0.000 setgray
fill
grestore
stroke
grestore
} bind def
161.737 37.5438 o
grestore
gsave
155.378125 22.950000 translate
0.000000 rotate
0.000000 0.000000 m /eight glyphshow
6.362305 0.000000 m /zero glyphshow
grestore
gsave
/o {
gsave
newpath
translate
0.8 setlinewidth
1 setlinejoin
0 setlinecap
0 0 m
0 -3.5 l

gsave
0.000 setgray
fill
grestore
stroke
grestore
} bind def
217.538 37.5438 o
grestore
gsave
211.178125 22.950000 translate
0.000000 rotate
0.000000 0.000000 m /eight glyphshow
6.362305 0.000000 m /five glyphshow
grestore
gsave
/o {
gsave
newpath
translate
0.8 setlinewidth
1 setlinejoin
0 setlinecap
0 0 m
0 -3.5 l

gsave
0.000 setgray
fill
grestore
stroke
grestore
} bind def
273.337 37.5438 o
grestore
gsave
266.978125 22.950000 translate
0.000000 rotate
0.000000 0.000000 m /nine glyphshow
6.362305 0.000000 m /zero glyphshow
grestore
gsave
/o {
gsave
newpath
translate
0.8 setlinewidth
1 setlinejoin
0 setlinecap
0 0 m
0 -3.5 l

gsave
0.000 setgray
fill
grestore
stroke
grestore
} bind def
329.138 37.5438 o
grestore
gsave
322.778125 22.950000 translate
0.000000 rotate
0.000000 0.000000 m /nine glyphshow
6.362305 0.000000 m /five glyphshow
grestore
gsave
/o {
gsave
newpath
translate
0.8 setlinewidth
1 setlinejoin
0 setlinecap
0 0 m
0 -3.5 l

gsave
0.000 setgray
fill
grestore
stroke
grestore
} bind def
384.938 37.5438 o
grestore
gsave
375.398438 22.950000 translate
0.000000 rotate
0.000000 0.000000 m /one glyphshow
6.362305 0.000000 m /zero glyphshow
12.724609 0.000000 m /zero glyphshow
grestore
gsave
169.459375 9.278125 translate
0.000000 rotate
0.000000 0.000000 m /T glyphshow
6.092773 0.000000 m /o glyphshow
12.210938 0.000000 m /p glyphshow
18.558594 0.000000 m /space glyphshow
21.737305 0.000000 m /one glyphshow
28.099609 0.000000 m /zero glyphshow
34.461914 0.000000 m /zero glyphshow
40.824219 0.000000 m /space glyphshow
44.002930 0.000000 m /S glyphshow
50.350586 0.000000 m /e glyphshow
56.502930 0.000000 m /n glyphshow
62.840820 0.000000 m /t glyphshow
66.761719 0.000000 m /e glyphshow
72.914062 0.000000 m /n glyphshow
79.251953 0.000000 m /c glyphshow
84.750000 0.000000 m /e glyphshow
90.902344 0.000000 m /s glyphshow
grestore
gsave
/o {
gsave
newpath
translate
0.8 setlinewidth
1 setlinejoin
0 setlinecap
0 0 m
-3.5 0 l

gsave
0.000 setgray
fill
grestore
stroke
grestore
} bind def
50.1375 37.5438 o
grestore
gsave
20.871875 33.746875 translate
0.000000 rotate
0.000000 0.000000 m /zero glyphshow
6.362305 0.000000 m /period glyphshow
9.541016 0.000000 m /seven glyphshow
15.903320 0.000000 m /zero glyphshow
grestore
gsave
/o {
gsave
newpath
translate
0.8 setlinewidth
1 setlinejoin
0 setlinecap
0 0 m
-3.5 0 l

gsave
0.000 setgray
fill
grestore
stroke
grestore
} bind def
50.1375 81.0317 o
grestore
gsave
20.871875 77.234875 translate
0.000000 rotate
0.000000 0.000000 m /zero glyphshow
6.362305 0.000000 m /period glyphshow
9.541016 0.000000 m /seven glyphshow
15.903320 0.000000 m /five glyphshow
grestore
gsave
/o {
gsave
newpath
translate
0.8 setlinewidth
1 setlinejoin
0 setlinecap
0 0 m
-3.5 0 l

gsave
0.000 setgray
fill
grestore
stroke
grestore
} bind def
50.1375 124.52 o
grestore
gsave
20.871875 120.722875 translate
0.000000 rotate
0.000000 0.000000 m /zero glyphshow
6.362305 0.000000 m /period glyphshow
9.541016 0.000000 m /eight glyphshow
15.903320 0.000000 m /zero glyphshow
grestore
gsave
/o {
gsave
newpath
translate
0.8 setlinewidth
1 setlinejoin
0 setlinecap
0 0 m
-3.5 0 l

gsave
0.000 setgray
fill
grestore
stroke
grestore
} bind def
50.1375 168.008 o
grestore
gsave
20.871875 164.210875 translate
0.000000 rotate
0.000000 0.000000 m /zero glyphshow
6.362305 0.000000 m /period glyphshow
9.541016 0.000000 m /eight glyphshow
15.903320 0.000000 m /five glyphshow
grestore
gsave
/o {
gsave
newpath
translate
0.8 setlinewidth
1 setlinejoin
0 setlinecap
0 0 m
-3.5 0 l

gsave
0.000 setgray
fill
grestore
stroke
grestore
} bind def
50.1375 211.496 o
grestore
gsave
20.871875 207.698875 translate
0.000000 rotate
0.000000 0.000000 m /zero glyphshow
6.362305 0.000000 m /period glyphshow
9.541016 0.000000 m /nine glyphshow
15.903320 0.000000 m /zero glyphshow
grestore
gsave
/o {
gsave
newpath
translate
0.8 setlinewidth
1 setlinejoin
0 setlinecap
0 0 m
-3.5 0 l

gsave
0.000 setgray
fill
grestore
stroke
grestore
} bind def
50.1375 254.984 o
grestore
gsave
20.871875 251.186875 translate
0.000000 rotate
0.000000 0.000000 m /zero glyphshow
6.362305 0.000000 m /period glyphshow
9.541016 0.000000 m /nine glyphshow
15.903320 0.000000 m /five glyphshow
grestore
gsave
14.793750 95.240313 translate
90.000000 rotate
0.000000 0.000000 m /D glyphshow
7.700195 0.000000 m /i glyphshow
10.478516 0.000000 m /s glyphshow
15.688477 0.000000 m /t glyphshow
19.609375 0.000000 m /a glyphshow
25.737305 0.000000 m /n glyphshow
32.075195 0.000000 m /c glyphshow
37.573242 0.000000 m /e glyphshow
43.725586 0.000000 m /space glyphshow
46.904297 0.000000 m /f glyphshow
50.424805 0.000000 m /r glyphshow
54.536133 0.000000 m /o glyphshow
60.654297 0.000000 m /m glyphshow
70.395508 0.000000 m /space glyphshow
73.574219 0.000000 m /C glyphshow
80.556641 0.000000 m /l glyphshow
83.334961 0.000000 m /a glyphshow
89.462891 0.000000 m /i glyphshow
92.241211 0.000000 m /m glyphshow
grestore
1.500 setlinewidth
2 setlinecap
0.122 0.467 0.706 setrgbcolor
gsave
334.8 217.4 50.14 37.54 clipbox
-1 138.068719 m
5.4975 138.277676 l
16.6575 138.988063 l
27.8175 139.121504 l
38.9775 139.475894 l
50.1375 139.676781 l
61.2975 140.876606 l
72.4575 141.837077 l
83.6175 142.5175 l
94.7775 143.305961 l
105.9375 143.582485 l
117.0975 143.636712 l
128.2575 144.120032 l
139.4175 144.435696 l
150.5775 145.62028 l
161.7375 147.175221 l
172.8975 147.490574 l
184.0575 148.225068 l
195.2175 148.277739 l
206.3775 149.131417 l
217.5375 149.369474 l
228.6975 150.182301 l
239.8575 151.448691 l
251.0175 153.000418 l
262.1775 153.119343 l
273.3375 153.772808 l
284.4975 155.37311 l
295.6575 155.611323 l
306.8175 155.976185 l
317.9775 158.276818 l
329.1375 159.826264 l
340.2975 163.02521 l
351.4575 166.440802 l
362.6175 169.695219 l
373.7775 175.830792 l
stroke
grestore
1.000 0.498 0.055 setrgbcolor
gsave
334.8 217.4 50.14 37.54 clipbox
-1 133.860866 m
5.4975 134.30691 l
16.6575 134.670476 l
27.8175 134.746372 l
38.9775 135.074271 l
50.1375 135.354942 l
61.2975 136.002186 l
72.4575 137.635305 l
83.6175 137.668432 l
94.7775 139.744745 l
105.9375 140.230191 l
117.0975 140.650316 l
128.2575 140.866393 l
139.4175 141.164431 l
150.5775 141.428772 l
161.7375 141.529086 l
172.8975 141.541839 l
184.0575 141.890682 l
195.2175 142.575822 l
206.3775 143.441476 l
217.5375 144.273224 l
228.6975 146.91876 l
239.8575 147.046031 l
251.0175 148.645297 l
262.1775 150.073019 l
273.3375 150.567433 l
284.4975 150.911714 l
295.6575 153.375907 l
306.8175 154.894196 l
317.9775 161.470943 l
329.1375 163.746691 l
340.2975 163.928915 l
351.4575 169.270117 l
362.6175 169.747061 l
373.7775 180.717187 l
stroke
grestore
0.173 0.627 0.173 setrgbcolor
gsave
334.8 217.4 50.14 37.54 clipbox
-1 136.274419 m
5.4975 136.356939 l
16.6575 138.491938 l
27.8175 138.590074 l
38.9775 139.06624 l
50.1375 140.931299 l
61.2975 143.126226 l
72.4575 144.055696 l
83.6175 144.409775 l
94.7775 144.450212 l
105.9375 144.821191 l
117.0975 144.826687 l
128.2575 145.068166 l
139.4175 145.079934 l
150.5775 145.392384 l
161.7375 145.451483 l
172.8975 145.553715 l
184.0575 146.026201 l
195.2175 146.070733 l
206.3775 146.634356 l
217.5375 148.545294 l
228.6975 149.537027 l
239.8575 149.738691 l
251.0175 152.327927 l
262.1775 152.846759 l
273.3375 154.326322 l
284.4975 154.938728 l
295.6575 157.116496 l
306.8175 157.797074 l
317.9775 158.741164 l
329.1375 170.823555 l
340.2975 189.694828 l
351.4575 191.89779 l
362.6175 202.456138 l
373.7775 226.34792 l
stroke
grestore
0.839 0.153 0.157 setrgbcolor
gsave
334.8 217.4 50.14 37.54 clipbox
-1 140.706127 m
5.4975 141.042033 l
16.6575 141.228767 l
27.8175 141.421255 l
38.9775 142.025678 l
50.1375 142.881844 l
61.2975 143.346553 l
72.4575 143.88747 l
83.6175 144.058237 l
94.7775 144.243312 l
105.9375 144.400651 l
117.0975 144.547726 l
128.2575 144.896518 l
139.4175 145.321464 l
150.5775 145.414987 l
161.7375 146.37577 l
172.8975 146.548921 l
184.0575 146.632127 l
195.2175 146.735914 l
206.3775 146.830059 l
217.5375 146.997559 l
228.6975 148.300705 l
239.8575 149.998055 l
251.0175 150.878069 l
262.1775 151.911482 l
273.3375 154.291432 l
284.4975 154.383555 l
295.6575 155.470365 l
306.8175 155.724338 l
317.9775 158.350951 l
329.1375 159.056362 l
340.2975 160.3973 l
351.4575 160.638831 l
362.6175 163.48292 l
373.7775 164.328459 l
stroke
grestore
0.580 0.404 0.741 setrgbcolor
gsave
334.8 217.4 50.14 37.54 clipbox
-1 69.985572 m
5.4975 69.985572 l
16.6575 70.343902 l
27.8175 71.023081 l
38.9775 73.515528 l
50.1375 75.254766 l
61.2975 75.406818 l
72.4575 76.543396 l
83.6175 78.40213 l
94.7775 79.782468 l
105.9375 82.566317 l
117.0975 83.831307 l
128.2575 84.43459 l
139.4175 84.476685 l
150.5775 84.54776 l
161.7375 84.734961 l
172.8975 85.588794 l
184.0575 85.609168 l
195.2175 91.379049 l
206.3775 92.340662 l
217.5375 92.539371 l
228.6975 92.974997 l
239.8575 93.102995 l
251.0175 94.803403 l
262.1775 96.616309 l
273.3375 98.325738 l
284.4975 98.789722 l
295.6575 99.10663 l
306.8175 107.036602 l
317.9775 113.942698 l
329.1375 116.356709 l
340.2975 119.103025 l
351.4575 121.687439 l
362.6175 126.008396 l
373.7775 153.034218 l
stroke
grestore
1.000 0.000 0.000 setrgbcolor
gsave
334.8 217.4 50.14 37.54 clipbox
351.4575 166.440802 m
362.6175 169.695219 l
373.7775 175.830792 l
stroke
grestore
gsave
334.8 217.4 50.14 37.54 clipbox
/o {
gsave
newpath
translate
-0.49999 -0.49999 m
0.50001 -0.49999 l
0.50001 0.50001 l
-0.49999 0.50001 l
cl

1.000 0.000 0.000 setrgbcolor
fill
grestore
} bind def
351.457 166.441 o
362.618 169.695 o
373.777 175.831 o
grestore
gsave
334.8 217.4 50.14 37.54 clipbox
362.6175 169.747061 m
373.7775 180.717187 l
stroke
grestore
1.000 setlinewidth
0 setlinecap
gsave
334.8 217.4 50.14 37.54 clipbox
/o {
gsave
newpath
translate
1.0 setlinewidth
1 setlinejoin
0 setlinecap
-3 0 m
3 0 l
0 -3 m
0 3 l

gsave
1.000 0.000 0.000 setrgbcolor
fill
grestore
stroke
grestore
} bind def
362.618 169.747 o
373.777 180.717 o
grestore
1.500 setlinewidth
2 setlinecap
gsave
334.8 217.4 50.14 37.54 clipbox
373.7775 226.34792 m
stroke
grestore
1.000 setlinewidth
0 setlinecap
gsave
334.8 217.4 50.14 37.54 clipbox
/o {
gsave
newpath
translate
1.0 setlinewidth
1 setlinejoin
0 setlinecap
0 -1.5 m
0.397805 -1.5 0.77937 -1.341951 1.06066 -1.06066 c
1.341951 -0.77937 1.5 -0.397805 1.5 0 c
1.5 0.397805 1.341951 0.77937 1.06066 1.06066 c
0.77937 1.341951 0.397805 1.5 0 1.5 c
-0.397805 1.5 -0.77937 1.341951 -1.06066 1.06066 c
-1.341951 0.77937 -1.5 0.397805 -1.5 0 c
-1.5 -0.397805 -1.341951 -0.77937 -1.06066 -1.06066 c
-0.77937 -1.341951 -0.397805 -1.5 0 -1.5 c
cl

gsave
1.000 0.000 0.000 setrgbcolor
fill
grestore
stroke
grestore
} bind def
373.777 226.348 o
grestore
1.500 setlinewidth
2 setlinecap
gsave
334.8 217.4 50.14 37.54 clipbox
351.4575 160.638831 m
362.6175 163.48292 l
373.7775 164.328459 l
stroke
grestore
1.000 setlinewidth
0 setlinecap
gsave
334.8 217.4 50.14 37.54 clipbox
/o {
gsave
newpath
translate
1.0 setlinewidth
1 setlinejoin
0 setlinecap
0 -3 m
0.795609 -3 1.55874 -2.683901 2.12132 -2.12132 c
2.683901 -1.55874 3 -0.795609 3 0 c
3 0.795609 2.683901 1.55874 2.12132 2.12132 c
1.55874 2.683901 0.795609 3 0 3 c
-0.795609 3 -1.55874 2.683901 -2.12132 2.12132 c
-2.683901 1.55874 -3 0.795609 -3 0 c
-3 -0.795609 -2.683901 -1.55874 -2.12132 -2.12132 c
-1.55874 -2.683901 -0.795609 -3 0 -3 c
cl

gsave
1.000 0.000 0.000 setrgbcolor
fill
grestore
stroke
grestore
} bind def
351.457 160.639 o
362.618 163.483 o
373.777 164.328 o
grestore
1.500 setlinewidth
2 setlinecap
gsave
334.8 217.4 50.14 37.54 clipbox
373.7775 153.034218 m
stroke
grestore
1.000 setlinewidth
2 setlinejoin
0 setlinecap
gsave
334.8 217.4 50.14 37.54 clipbox
/o {
gsave
newpath
translate
1.0 setlinewidth
2 setlinejoin
0 setlinecap
0 3 m
-0.673542 0.927051 l
-2.85317 0.927051 l
-1.089814 -0.354102 l
-1.763356 -2.427051 l
-0 -1.145898 l
1.763356 -2.427051 l
1.089814 -0.354102 l
2.85317 0.927051 l
0.673542 0.927051 l
cl

gsave
1.000 0.000 0.000 setrgbcolor
fill
grestore
stroke
grestore
} bind def
373.777 153.034 o
grestore
0.800 setlinewidth
0 setlinejoin
2 setlinecap
[] 0 setdash
0.000 setgray
gsave
50.1375 37.54375 m
50.1375 254.98375 l
stroke
grestore
gsave
384.9375 37.54375 m
384.9375 254.98375 l
stroke
grestore
gsave
50.1375 37.54375 m
384.9375 37.54375 l
stroke
grestore
gsave
50.1375 254.98375 m
384.9375 254.98375 l
stroke
grestore
/DejaVuSans findfont
12.000 scalefont
setfont
gsave
131.357813 260.983750 translate
0.000000 rotate
0.000000 0.000000 m /E glyphshow
7.582031 0.000000 m /v glyphshow
14.683594 0.000000 m /i glyphshow
18.017578 0.000000 m /d glyphshow
25.634766 0.000000 m /e glyphshow
33.017578 0.000000 m /n glyphshow
40.623047 0.000000 m /c glyphshow
47.220703 0.000000 m /e glyphshow
54.603516 0.000000 m /space glyphshow
58.417969 0.000000 m /s glyphshow
64.669922 0.000000 m /h glyphshow
72.275391 0.000000 m /o glyphshow
79.617188 0.000000 m /w glyphshow
89.431641 0.000000 m /n glyphshow
97.037109 0.000000 m /space glyphshow
100.851562 0.000000 m /i glyphshow
104.185547 0.000000 m /n glyphshow
111.791016 0.000000 m /space glyphshow
115.605469 0.000000 m /S glyphshow
123.222656 0.000000 m /i glyphshow
126.556641 0.000000 m /m glyphshow
138.246094 0.000000 m /i glyphshow
141.580078 0.000000 m /l glyphshow
144.914062 0.000000 m /a glyphshow
152.267578 0.000000 m /r glyphshow
157.201172 0.000000 m /i glyphshow
160.535156 0.000000 m /t glyphshow
165.240234 0.000000 m /y glyphshow
grestore

end
showpage
