%!PS-Adobe-3.0 EPSF-3.0
%%Title: overview_graph.eps
%%Creator: matplotlib version 2.0.0, http://matplotlib.org/
%%CreationDate: Mon Nov 20 22:01:38 2017
%%Orientation: portrait
%%BoundingBox: 111 257 500 534
%%EndComments
%%BeginProlog
/mpldict 8 dict def
mpldict begin
/m { moveto } bind def
/l { lineto } bind def
/r { rlineto } bind def
/c { curveto } bind def
/cl { closepath } bind def
/box {
m
1 index 0 r
0 exch r
neg 0 r
cl
} bind def
/clipbox {
box
clip
newpath
} bind def
%!PS-Adobe-3.0 Resource-Font
%%Title: DejaVu Sans
%%Copyright: Copyright (c) 2003 by Bitstream, Inc. All Rights Reserved. Copyright (c) 2006 by Tavmjong Bah. All Rights Reserved. DejaVu changes are in public domain 
%%Creator: Converted from TrueType to type 3 by PPR
25 dict begin
/_d{bind def}bind def
/_m{moveto}_d
/_l{lineto}_d
/_cl{closepath eofill}_d
/_c{curveto}_d
/_sc{7 -1 roll{setcachedevice}{pop pop pop pop pop pop}ifelse}_d
/_e{exec}_d
/FontName /DejaVuSans def
/PaintType 0 def
/FontMatrix[.001 0 0 .001 0 0]def
/FontBBox[-1021 -463 1793 1232]def
/FontType 3 def
/Encoding [ /space /period /zero /one /two /three /four /five /six /seven /eight /nine /C /D /E /S /T /a /c /d /e /f /h /i /l /m /n /o /p /r /s /t /v /w /y ] def
/FontInfo 10 dict dup begin
/FamilyName (DejaVu Sans) def
/FullName (DejaVu Sans) def
/Notice (Copyright (c) 2003 by Bitstream, Inc. All Rights Reserved. Copyright (c) 2006 by Tavmjong Bah. All Rights Reserved. DejaVu changes are in public domain ) def
/Weight (Book) def
/Version (Version 2.35) def
/ItalicAngle 0.0 def
/isFixedPitch false def
/UnderlinePosition -130 def
/UnderlineThickness 90 def
end readonly def
/CharStrings 35 dict dup begin
/space{318 0 0 0 0 0 _sc
}_d
/period{318 0 107 0 210 124 _sc
107 124 _m
210 124 _l
210 0 _l
107 0 _l
107 124 _l
_cl}_d
/zero{636 0 66 -13 570 742 _sc
318 664 _m
267 664 229 639 203 589 _c
177 539 165 464 165 364 _c
165 264 177 189 203 139 _c
229 89 267 64 318 64 _c
369 64 407 89 433 139 _c
458 189 471 264 471 364 _c
471 464 458 539 433 589 _c
407 639 369 664 318 664 _c
318 742 _m
399 742 461 709 505 645 _c
548 580 570 486 570 364 _c
570 241 548 147 505 83 _c
461 19 399 -13 318 -13 _c
236 -13 173 19 130 83 _c
87 147 66 241 66 364 _c
66 486 87 580 130 645 _c
173 709 236 742 318 742 _c
_cl}_d
/one{636 0 110 0 544 729 _sc
124 83 _m
285 83 _l
285 639 _l
110 604 _l
110 694 _l
284 729 _l
383 729 _l
383 83 _l
544 83 _l
544 0 _l
124 0 _l
124 83 _l
_cl}_d
/two{{636 0 73 0 536 742 _sc
192 83 _m
536 83 _l
536 0 _l
73 0 _l
73 83 _l
110 121 161 173 226 239 _c
290 304 331 346 348 365 _c
380 400 402 430 414 455 _c
426 479 433 504 433 528 _c
433 566 419 598 392 622 _c
365 646 330 659 286 659 _c
255 659 222 653 188 643 _c
154 632 117 616 78 594 _c
78 694 _l
118 710 155 722 189 730 _c
223 738 255 742 284 742 _c
}_e{359 742 419 723 464 685 _c
509 647 532 597 532 534 _c
532 504 526 475 515 449 _c
504 422 484 390 454 354 _c
446 344 420 317 376 272 _c
332 227 271 164 192 83 _c
_cl}_e}_d
/three{{636 0 76 -13 556 742 _sc
406 393 _m
453 383 490 362 516 330 _c
542 298 556 258 556 212 _c
556 140 531 84 482 45 _c
432 6 362 -13 271 -13 _c
240 -13 208 -10 176 -4 _c
144 1 110 10 76 22 _c
76 117 _l
103 101 133 89 166 81 _c
198 73 232 69 268 69 _c
330 69 377 81 409 105 _c
441 129 458 165 458 212 _c
458 254 443 288 413 312 _c
383 336 341 349 287 349 _c
}_e{202 349 _l
202 430 _l
291 430 _l
339 430 376 439 402 459 _c
428 478 441 506 441 543 _c
441 580 427 609 401 629 _c
374 649 336 659 287 659 _c
260 659 231 656 200 650 _c
169 644 135 635 98 623 _c
98 711 _l
135 721 170 729 203 734 _c
235 739 266 742 296 742 _c
370 742 429 725 473 691 _c
517 657 539 611 539 553 _c
539 513 527 479 504 451 _c
481 423 448 403 406 393 _c
_cl}_e}_d
/four{636 0 49 0 580 729 _sc
378 643 _m
129 254 _l
378 254 _l
378 643 _l
352 729 _m
476 729 _l
476 254 _l
580 254 _l
580 172 _l
476 172 _l
476 0 _l
378 0 _l
378 172 _l
49 172 _l
49 267 _l
352 729 _l
_cl}_d
/five{{636 0 77 -13 549 729 _sc
108 729 _m
495 729 _l
495 646 _l
198 646 _l
198 467 _l
212 472 227 476 241 478 _c
255 480 270 482 284 482 _c
365 482 429 459 477 415 _c
525 370 549 310 549 234 _c
549 155 524 94 475 51 _c
426 8 357 -13 269 -13 _c
238 -13 207 -10 175 -6 _c
143 -1 111 6 77 17 _c
77 116 _l
106 100 136 88 168 80 _c
199 72 232 69 267 69 _c
}_e{323 69 368 83 401 113 _c
433 143 450 183 450 234 _c
450 284 433 324 401 354 _c
368 384 323 399 267 399 _c
241 399 214 396 188 390 _c
162 384 135 375 108 363 _c
108 729 _l
_cl}_e}_d
/six{{636 0 70 -13 573 742 _sc
330 404 _m
286 404 251 388 225 358 _c
199 328 186 286 186 234 _c
186 181 199 139 225 109 _c
251 79 286 64 330 64 _c
374 64 409 79 435 109 _c
461 139 474 181 474 234 _c
474 286 461 328 435 358 _c
409 388 374 404 330 404 _c
526 713 _m
526 623 _l
501 635 476 644 451 650 _c
425 656 400 659 376 659 _c
310 659 260 637 226 593 _c
}_e{192 549 172 482 168 394 _c
187 422 211 444 240 459 _c
269 474 301 482 336 482 _c
409 482 467 459 509 415 _c
551 371 573 310 573 234 _c
573 159 550 99 506 54 _c
462 9 403 -13 330 -13 _c
246 -13 181 19 137 83 _c
92 147 70 241 70 364 _c
70 479 97 571 152 639 _c
206 707 280 742 372 742 _c
396 742 421 739 447 735 _c
472 730 498 723 526 713 _c
_cl}_e}_d
/seven{636 0 82 0 551 729 _sc
82 729 _m
551 729 _l
551 687 _l
286 0 _l
183 0 _l
432 646 _l
82 646 _l
82 729 _l
_cl}_d
/eight{{636 0 68 -13 568 742 _sc
318 346 _m
271 346 234 333 207 308 _c
180 283 167 249 167 205 _c
167 161 180 126 207 101 _c
234 76 271 64 318 64 _c
364 64 401 76 428 102 _c
455 127 469 161 469 205 _c
469 249 455 283 429 308 _c
402 333 365 346 318 346 _c
219 388 _m
177 398 144 418 120 447 _c
96 476 85 511 85 553 _c
85 611 105 657 147 691 _c
188 725 245 742 318 742 _c
}_e{390 742 447 725 489 691 _c
530 657 551 611 551 553 _c
551 511 539 476 515 447 _c
491 418 459 398 417 388 _c
464 377 501 355 528 323 _c
554 291 568 251 568 205 _c
568 134 546 80 503 43 _c
459 5 398 -13 318 -13 _c
237 -13 175 5 132 43 _c
89 80 68 134 68 205 _c
68 251 81 291 108 323 _c
134 355 171 377 219 388 _c
183 544 _m
183 506 194 476 218 455 _c
}_e{242 434 275 424 318 424 _c
360 424 393 434 417 455 _c
441 476 453 506 453 544 _c
453 582 441 611 417 632 _c
393 653 360 664 318 664 _c
275 664 242 653 218 632 _c
194 611 183 582 183 544 _c
_cl}_e}_d
/nine{{636 0 63 -13 566 742 _sc
110 15 _m
110 105 _l
134 93 159 84 185 78 _c
210 72 235 69 260 69 _c
324 69 374 90 408 134 _c
442 178 462 244 468 334 _c
448 306 424 284 396 269 _c
367 254 335 247 300 247 _c
226 247 168 269 126 313 _c
84 357 63 417 63 494 _c
63 568 85 628 129 674 _c
173 719 232 742 306 742 _c
390 742 455 709 499 645 _c
543 580 566 486 566 364 _c
}_e{566 248 538 157 484 89 _c
429 21 356 -13 264 -13 _c
239 -13 214 -10 189 -6 _c
163 -2 137 5 110 15 _c
306 324 _m
350 324 385 339 411 369 _c
437 399 450 441 450 494 _c
450 546 437 588 411 618 _c
385 648 350 664 306 664 _c
262 664 227 648 201 618 _c
175 588 162 546 162 494 _c
162 441 175 399 201 369 _c
227 339 262 324 306 324 _c
_cl}_e}_d
/C{{698 0 56 -13 644 742 _sc
644 673 _m
644 569 _l
610 599 575 622 537 638 _c
499 653 460 661 418 661 _c
334 661 270 635 226 584 _c
182 533 160 460 160 364 _c
160 268 182 194 226 143 _c
270 92 334 67 418 67 _c
460 67 499 74 537 90 _c
575 105 610 128 644 159 _c
644 56 _l
609 32 572 15 534 4 _c
496 -7 455 -13 412 -13 _c
302 -13 215 20 151 87 _c
}_e{87 154 56 246 56 364 _c
56 481 87 573 151 641 _c
215 708 302 742 412 742 _c
456 742 497 736 535 725 _c
573 713 610 696 644 673 _c
_cl}_e}_d
/D{770 0 98 0 711 729 _sc
197 648 _m
197 81 _l
316 81 _l
416 81 490 103 537 149 _c
583 195 607 267 607 365 _c
607 463 583 534 537 580 _c
490 625 416 648 316 648 _c
197 648 _l
98 729 _m
301 729 _l
442 729 546 699 612 641 _c
678 582 711 490 711 365 _c
711 239 677 147 611 88 _c
545 29 441 0 301 0 _c
98 0 _l
98 729 _l
_cl}_d
/E{632 0 98 0 568 729 _sc
98 729 _m
559 729 _l
559 646 _l
197 646 _l
197 430 _l
544 430 _l
544 347 _l
197 347 _l
197 83 _l
568 83 _l
568 0 _l
98 0 _l
98 729 _l
_cl}_d
/S{{635 0 66 -13 579 742 _sc
535 705 _m
535 609 _l
497 627 462 640 429 649 _c
395 657 363 662 333 662 _c
279 662 237 651 208 631 _c
179 610 165 580 165 542 _c
165 510 174 485 194 469 _c
213 452 250 439 304 429 _c
364 417 _l
437 403 491 378 526 343 _c
561 307 579 260 579 201 _c
579 130 555 77 508 41 _c
460 5 391 -13 300 -13 _c
265 -13 228 -9 189 -2 _c
}_e{150 5 110 16 69 32 _c
69 134 _l
109 111 148 94 186 83 _c
224 71 262 66 300 66 _c
356 66 399 77 430 99 _c
460 121 476 152 476 194 _c
476 230 465 258 443 278 _c
421 298 385 313 335 323 _c
275 335 _l
201 349 148 372 115 404 _c
82 435 66 478 66 534 _c
66 598 88 649 134 686 _c
179 723 242 742 322 742 _c
356 742 390 739 426 733 _c
461 727 497 717 535 705 _c
}_e{_cl}_e}_d
/T{611 0 -2 0 614 729 _sc
-2 729 _m
614 729 _l
614 646 _l
355 646 _l
355 0 _l
256 0 _l
256 646 _l
-2 646 _l
-2 729 _l
_cl}_d
/a{{613 0 60 -13 522 560 _sc
343 275 _m
270 275 220 266 192 250 _c
164 233 150 205 150 165 _c
150 133 160 107 181 89 _c
202 70 231 61 267 61 _c
317 61 357 78 387 114 _c
417 149 432 196 432 255 _c
432 275 _l
343 275 _l
522 312 _m
522 0 _l
432 0 _l
432 83 _l
411 49 385 25 355 10 _c
325 -5 287 -13 243 -13 _c
187 -13 142 2 109 33 _c
76 64 60 106 60 159 _c
}_e{60 220 80 266 122 298 _c
163 329 224 345 306 345 _c
432 345 _l
432 354 _l
432 395 418 427 391 450 _c
364 472 326 484 277 484 _c
245 484 215 480 185 472 _c
155 464 127 453 100 439 _c
100 522 _l
132 534 164 544 195 550 _c
226 556 256 560 286 560 _c
365 560 424 539 463 498 _c
502 457 522 395 522 312 _c
_cl}_e}_d
/c{{550 0 55 -13 488 560 _sc
488 526 _m
488 442 _l
462 456 437 466 411 473 _c
385 480 360 484 334 484 _c
276 484 230 465 198 428 _c
166 391 150 339 150 273 _c
150 206 166 154 198 117 _c
230 80 276 62 334 62 _c
360 62 385 65 411 72 _c
437 79 462 90 488 104 _c
488 21 _l
462 9 436 0 410 -5 _c
383 -10 354 -13 324 -13 _c
242 -13 176 12 128 64 _c
}_e{79 115 55 185 55 273 _c
55 362 79 432 128 483 _c
177 534 244 560 330 560 _c
358 560 385 557 411 551 _c
437 545 463 537 488 526 _c
_cl}_e}_d
/d{{635 0 55 -13 544 760 _sc
454 464 _m
454 760 _l
544 760 _l
544 0 _l
454 0 _l
454 82 _l
435 49 411 25 382 10 _c
353 -5 319 -13 279 -13 _c
213 -13 159 13 117 65 _c
75 117 55 187 55 273 _c
55 359 75 428 117 481 _c
159 533 213 560 279 560 _c
319 560 353 552 382 536 _c
411 520 435 496 454 464 _c
148 273 _m
148 207 161 155 188 117 _c
215 79 253 61 301 61 _c
}_e{348 61 385 79 413 117 _c
440 155 454 207 454 273 _c
454 339 440 390 413 428 _c
385 466 348 485 301 485 _c
253 485 215 466 188 428 _c
161 390 148 339 148 273 _c
_cl}_e}_d
/e{{615 0 55 -13 562 560 _sc
562 296 _m
562 252 _l
149 252 _l
153 190 171 142 205 110 _c
238 78 284 62 344 62 _c
378 62 412 66 444 74 _c
476 82 509 95 541 113 _c
541 28 _l
509 14 476 3 442 -3 _c
408 -9 373 -13 339 -13 _c
251 -13 182 12 131 62 _c
80 112 55 181 55 268 _c
55 357 79 428 127 481 _c
175 533 241 560 323 560 _c
397 560 455 536 498 489 _c
}_e{540 441 562 377 562 296 _c
472 322 _m
471 371 457 410 431 440 _c
404 469 368 484 324 484 _c
274 484 234 469 204 441 _c
174 413 156 373 152 322 _c
472 322 _l
_cl}_e}_d
/f{352 0 23 0 371 760 _sc
371 760 _m
371 685 _l
285 685 _l
253 685 230 678 218 665 _c
205 652 199 629 199 595 _c
199 547 _l
347 547 _l
347 477 _l
199 477 _l
199 0 _l
109 0 _l
109 477 _l
23 477 _l
23 547 _l
109 547 _l
109 585 _l
109 645 123 690 151 718 _c
179 746 224 760 286 760 _c
371 760 _l
_cl}_d
/h{634 0 91 0 549 760 _sc
549 330 _m
549 0 _l
459 0 _l
459 327 _l
459 379 448 417 428 443 _c
408 469 378 482 338 482 _c
289 482 251 466 223 435 _c
195 404 181 362 181 309 _c
181 0 _l
91 0 _l
91 760 _l
181 760 _l
181 462 _l
202 494 227 519 257 535 _c
286 551 320 560 358 560 _c
420 560 468 540 500 501 _c
532 462 549 405 549 330 _c
_cl}_d
/i{278 0 94 0 184 760 _sc
94 547 _m
184 547 _l
184 0 _l
94 0 _l
94 547 _l
94 760 _m
184 760 _l
184 646 _l
94 646 _l
94 760 _l
_cl}_d
/l{278 0 94 0 184 760 _sc
94 760 _m
184 760 _l
184 0 _l
94 0 _l
94 760 _l
_cl}_d
/m{{974 0 91 0 889 560 _sc
520 442 _m
542 482 569 511 600 531 _c
631 550 668 560 711 560 _c
767 560 811 540 842 500 _c
873 460 889 403 889 330 _c
889 0 _l
799 0 _l
799 327 _l
799 379 789 418 771 444 _c
752 469 724 482 686 482 _c
639 482 602 466 575 435 _c
548 404 535 362 535 309 _c
535 0 _l
445 0 _l
445 327 _l
445 379 435 418 417 444 _c
398 469 369 482 331 482 _c
}_e{285 482 248 466 221 435 _c
194 404 181 362 181 309 _c
181 0 _l
91 0 _l
91 547 _l
181 547 _l
181 462 _l
201 495 226 520 255 536 _c
283 552 317 560 357 560 _c
397 560 430 550 458 530 _c
486 510 506 480 520 442 _c
_cl}_e}_d
/n{634 0 91 0 549 560 _sc
549 330 _m
549 0 _l
459 0 _l
459 327 _l
459 379 448 417 428 443 _c
408 469 378 482 338 482 _c
289 482 251 466 223 435 _c
195 404 181 362 181 309 _c
181 0 _l
91 0 _l
91 547 _l
181 547 _l
181 462 _l
202 494 227 519 257 535 _c
286 551 320 560 358 560 _c
420 560 468 540 500 501 _c
532 462 549 405 549 330 _c
_cl}_d
/o{612 0 55 -13 557 560 _sc
306 484 _m
258 484 220 465 192 427 _c
164 389 150 338 150 273 _c
150 207 163 156 191 118 _c
219 80 257 62 306 62 _c
354 62 392 80 420 118 _c
448 156 462 207 462 273 _c
462 337 448 389 420 427 _c
392 465 354 484 306 484 _c
306 560 _m
384 560 445 534 490 484 _c
534 433 557 363 557 273 _c
557 183 534 113 490 63 _c
445 12 384 -13 306 -13 _c
227 -13 165 12 121 63 _c
77 113 55 183 55 273 _c
55 363 77 433 121 484 _c
165 534 227 560 306 560 _c
_cl}_d
/p{{635 0 91 -207 580 560 _sc
181 82 _m
181 -207 _l
91 -207 _l
91 547 _l
181 547 _l
181 464 _l
199 496 223 520 252 536 _c
281 552 316 560 356 560 _c
422 560 476 533 518 481 _c
559 428 580 359 580 273 _c
580 187 559 117 518 65 _c
476 13 422 -13 356 -13 _c
316 -13 281 -5 252 10 _c
223 25 199 49 181 82 _c
487 273 _m
487 339 473 390 446 428 _c
418 466 381 485 334 485 _c
}_e{286 485 249 466 222 428 _c
194 390 181 339 181 273 _c
181 207 194 155 222 117 _c
249 79 286 61 334 61 _c
381 61 418 79 446 117 _c
473 155 487 207 487 273 _c
_cl}_e}_d
/r{411 0 91 0 411 560 _sc
411 463 _m
401 469 390 473 378 476 _c
366 478 353 480 339 480 _c
288 480 249 463 222 430 _c
194 397 181 350 181 288 _c
181 0 _l
91 0 _l
91 547 _l
181 547 _l
181 462 _l
199 495 224 520 254 536 _c
284 552 321 560 365 560 _c
371 560 378 559 386 559 _c
393 558 401 557 411 555 _c
411 463 _l
_cl}_d
/s{{521 0 54 -13 472 560 _sc
443 531 _m
443 446 _l
417 458 391 468 364 475 _c
336 481 308 485 279 485 _c
234 485 200 478 178 464 _c
156 450 145 430 145 403 _c
145 382 153 366 169 354 _c
185 342 217 330 265 320 _c
296 313 _l
360 299 405 279 432 255 _c
458 230 472 195 472 151 _c
472 100 452 60 412 31 _c
372 1 316 -13 246 -13 _c
216 -13 186 -10 154 -5 _c
}_e{122 0 89 8 54 20 _c
54 113 _l
87 95 120 82 152 74 _c
184 65 216 61 248 61 _c
290 61 323 68 346 82 _c
368 96 380 117 380 144 _c
380 168 371 187 355 200 _c
339 213 303 226 247 238 _c
216 245 _l
160 257 119 275 95 299 _c
70 323 58 356 58 399 _c
58 450 76 490 112 518 _c
148 546 200 560 268 560 _c
301 560 332 557 362 552 _c
391 547 418 540 443 531 _c
}_e{_cl}_e}_d
/t{392 0 27 0 368 702 _sc
183 702 _m
183 547 _l
368 547 _l
368 477 _l
183 477 _l
183 180 _l
183 135 189 106 201 94 _c
213 81 238 75 276 75 _c
368 75 _l
368 0 _l
276 0 _l
206 0 158 13 132 39 _c
106 65 93 112 93 180 _c
93 477 _l
27 477 _l
27 547 _l
93 547 _l
93 702 _l
183 702 _l
_cl}_d
/v{592 0 30 0 562 547 _sc
30 547 _m
125 547 _l
296 88 _l
467 547 _l
562 547 _l
357 0 _l
235 0 _l
30 547 _l
_cl}_d
/w{818 0 42 0 776 547 _sc
42 547 _m
132 547 _l
244 120 _l
356 547 _l
462 547 _l
574 120 _l
686 547 _l
776 547 _l
633 0 _l
527 0 _l
409 448 _l
291 0 _l
185 0 _l
42 547 _l
_cl}_d
/y{592 0 30 -207 562 547 _sc
322 -50 _m
296 -114 271 -157 247 -177 _c
223 -197 191 -207 151 -207 _c
79 -207 _l
79 -132 _l
132 -132 _l
156 -132 175 -126 189 -114 _c
203 -102 218 -75 235 -31 _c
251 9 _l
30 547 _l
125 547 _l
296 119 _l
467 547 _l
562 547 _l
322 -50 _l
_cl}_d
end readonly def

/BuildGlyph
 {exch begin
 CharStrings exch
 2 copy known not{pop /.notdef}if
 true 3 1 roll get exec
 end}_d

/BuildChar {
 1 index /Encoding get exch get
 1 index /BuildGlyph get exec
}_d

FontName currentdict end definefont pop
end
%%EndProlog
mpldict begin
111.361 257.346 translate
389.278 277.309 0 0 clipbox
gsave
0 0 m
389.278125 0 l
389.278125 277.30875 l
0 277.30875 l
cl
1.000 setgray
fill
grestore
gsave
43.778125 37.54375 m
378.578125 37.54375 l
378.578125 254.98375 l
43.778125 254.98375 l
cl
1.000 setgray
fill
grestore
0.800 setlinewidth
1 setlinejoin
0 setlinecap
[] 0 setdash
0.000 setgray
gsave
/o {
gsave
newpath
translate
0.8 setlinewidth
1 setlinejoin
0 setlinecap
0 0 m
0 -3.5 l

gsave
0.000 setgray
fill
grestore
stroke
grestore
} bind def
58.9963 37.5438 o
grestore
/DejaVuSans findfont
10.000 scalefont
setfont
gsave
55.816619 22.950000 translate
0.000000 rotate
0.000000 0.000000 m /zero glyphshow
grestore
gsave
/o {
gsave
newpath
translate
0.8 setlinewidth
1 setlinejoin
0 setlinecap
0 0 m
0 -3.5 l

gsave
0.000 setgray
fill
grestore
stroke
grestore
} bind def
120.484 37.5438 o
grestore
gsave
114.124535 22.950000 translate
0.000000 rotate
0.000000 0.000000 m /two glyphshow
6.362305 0.000000 m /zero glyphshow
grestore
gsave
/o {
gsave
newpath
translate
0.8 setlinewidth
1 setlinejoin
0 setlinecap
0 0 m
0 -3.5 l

gsave
0.000 setgray
fill
grestore
stroke
grestore
} bind def
181.972 37.5438 o
grestore
gsave
175.612138 22.950000 translate
0.000000 rotate
0.000000 0.000000 m /four glyphshow
6.362305 0.000000 m /zero glyphshow
grestore
gsave
/o {
gsave
newpath
translate
0.8 setlinewidth
1 setlinejoin
0 setlinecap
0 0 m
0 -3.5 l

gsave
0.000 setgray
fill
grestore
stroke
grestore
} bind def
243.459 37.5438 o
grestore
gsave
237.099742 22.950000 translate
0.000000 rotate
0.000000 0.000000 m /six glyphshow
6.362305 0.000000 m /zero glyphshow
grestore
gsave
/o {
gsave
newpath
translate
0.8 setlinewidth
1 setlinejoin
0 setlinecap
0 0 m
0 -3.5 l

gsave
0.000 setgray
fill
grestore
stroke
grestore
} bind def
304.947 37.5438 o
grestore
gsave
298.587345 22.950000 translate
0.000000 rotate
0.000000 0.000000 m /eight glyphshow
6.362305 0.000000 m /zero glyphshow
grestore
gsave
/o {
gsave
newpath
translate
0.8 setlinewidth
1 setlinejoin
0 setlinecap
0 0 m
0 -3.5 l

gsave
0.000 setgray
fill
grestore
stroke
grestore
} bind def
366.434 37.5438 o
grestore
gsave
356.895261 22.950000 translate
0.000000 rotate
0.000000 0.000000 m /one glyphshow
6.362305 0.000000 m /zero glyphshow
12.724609 0.000000 m /zero glyphshow
grestore
gsave
163.100000 9.278125 translate
0.000000 rotate
0.000000 0.000000 m /T glyphshow
6.092773 0.000000 m /o glyphshow
12.210938 0.000000 m /p glyphshow
18.558594 0.000000 m /space glyphshow
21.737305 0.000000 m /one glyphshow
28.099609 0.000000 m /zero glyphshow
34.461914 0.000000 m /zero glyphshow
40.824219 0.000000 m /space glyphshow
44.002930 0.000000 m /S glyphshow
50.350586 0.000000 m /e glyphshow
56.502930 0.000000 m /n glyphshow
62.840820 0.000000 m /t glyphshow
66.761719 0.000000 m /e glyphshow
72.914062 0.000000 m /n glyphshow
79.251953 0.000000 m /c glyphshow
84.750000 0.000000 m /e glyphshow
90.902344 0.000000 m /s glyphshow
grestore
gsave
/o {
gsave
newpath
translate
0.8 setlinewidth
1 setlinejoin
0 setlinecap
0 0 m
-3.5 0 l

gsave
0.000 setgray
fill
grestore
stroke
grestore
} bind def
43.7781 53.7183 o
grestore
gsave
20.871875 49.921427 translate
0.000000 rotate
0.000000 0.000000 m /zero glyphshow
6.362305 0.000000 m /period glyphshow
9.541016 0.000000 m /two glyphshow
grestore
gsave
/o {
gsave
newpath
translate
0.8 setlinewidth
1 setlinejoin
0 setlinecap
0 0 m
-3.5 0 l

gsave
0.000 setgray
fill
grestore
stroke
grestore
} bind def
43.7781 80.4075 o
grestore
gsave
20.871875 76.610616 translate
0.000000 rotate
0.000000 0.000000 m /zero glyphshow
6.362305 0.000000 m /period glyphshow
9.541016 0.000000 m /three glyphshow
grestore
gsave
/o {
gsave
newpath
translate
0.8 setlinewidth
1 setlinejoin
0 setlinecap
0 0 m
-3.5 0 l

gsave
0.000 setgray
fill
grestore
stroke
grestore
} bind def
43.7781 107.097 o
grestore
gsave
20.871875 103.299804 translate
0.000000 rotate
0.000000 0.000000 m /zero glyphshow
6.362305 0.000000 m /period glyphshow
9.541016 0.000000 m /four glyphshow
grestore
gsave
/o {
gsave
newpath
translate
0.8 setlinewidth
1 setlinejoin
0 setlinecap
0 0 m
-3.5 0 l

gsave
0.000 setgray
fill
grestore
stroke
grestore
} bind def
43.7781 133.786 o
grestore
gsave
20.871875 129.988993 translate
0.000000 rotate
0.000000 0.000000 m /zero glyphshow
6.362305 0.000000 m /period glyphshow
9.541016 0.000000 m /five glyphshow
grestore
gsave
/o {
gsave
newpath
translate
0.8 setlinewidth
1 setlinejoin
0 setlinecap
0 0 m
-3.5 0 l

gsave
0.000 setgray
fill
grestore
stroke
grestore
} bind def
43.7781 160.475 o
grestore
gsave
20.871875 156.678181 translate
0.000000 rotate
0.000000 0.000000 m /zero glyphshow
6.362305 0.000000 m /period glyphshow
9.541016 0.000000 m /six glyphshow
grestore
gsave
/o {
gsave
newpath
translate
0.8 setlinewidth
1 setlinejoin
0 setlinecap
0 0 m
-3.5 0 l

gsave
0.000 setgray
fill
grestore
stroke
grestore
} bind def
43.7781 187.164 o
grestore
gsave
20.871875 183.367370 translate
0.000000 rotate
0.000000 0.000000 m /zero glyphshow
6.362305 0.000000 m /period glyphshow
9.541016 0.000000 m /seven glyphshow
grestore
gsave
/o {
gsave
newpath
translate
0.8 setlinewidth
1 setlinejoin
0 setlinecap
0 0 m
-3.5 0 l

gsave
0.000 setgray
fill
grestore
stroke
grestore
} bind def
43.7781 213.853 o
grestore
gsave
20.871875 210.056559 translate
0.000000 rotate
0.000000 0.000000 m /zero glyphshow
6.362305 0.000000 m /period glyphshow
9.541016 0.000000 m /eight glyphshow
grestore
gsave
/o {
gsave
newpath
translate
0.8 setlinewidth
1 setlinejoin
0 setlinecap
0 0 m
-3.5 0 l

gsave
0.000 setgray
fill
grestore
stroke
grestore
} bind def
43.7781 240.543 o
grestore
gsave
20.871875 236.745747 translate
0.000000 rotate
0.000000 0.000000 m /zero glyphshow
6.362305 0.000000 m /period glyphshow
9.541016 0.000000 m /nine glyphshow
grestore
gsave
14.793750 95.240313 translate
90.000000 rotate
0.000000 0.000000 m /D glyphshow
7.700195 0.000000 m /i glyphshow
10.478516 0.000000 m /s glyphshow
15.688477 0.000000 m /t glyphshow
19.609375 0.000000 m /a glyphshow
25.737305 0.000000 m /n glyphshow
32.075195 0.000000 m /c glyphshow
37.573242 0.000000 m /e glyphshow
43.725586 0.000000 m /space glyphshow
46.904297 0.000000 m /f glyphshow
50.424805 0.000000 m /r glyphshow
54.536133 0.000000 m /o glyphshow
60.654297 0.000000 m /m glyphshow
70.395508 0.000000 m /space glyphshow
73.574219 0.000000 m /C glyphshow
80.556641 0.000000 m /l glyphshow
83.334961 0.000000 m /a glyphshow
89.462891 0.000000 m /i glyphshow
92.241211 0.000000 m /m glyphshow
grestore
1.500 setlinewidth
2 setlinecap
0.122 0.467 0.706 setrgbcolor
gsave
334.8 217.4 43.78 37.54 clipbox
58.996307 208.765344 m
62.070687 208.787011 l
65.145067 208.809648 l
68.219447 209.207125 l
71.293827 209.332798 l
74.368208 209.33493 l
77.442588 209.507277 l
80.516968 209.617169 l
83.591348 209.654283 l
86.665728 209.898168 l
89.740108 209.909654 l
92.814489 209.978726 l
95.888869 209.996209 l
98.963249 209.998532 l
102.037629 210.256305 l
105.112009 210.564204 l
108.186389 210.57806 l
111.26077 210.636967 l
114.33515 210.806769 l
117.40953 211.017423 l
120.48391 211.315857 l
123.55829 211.316605 l
126.63267 211.352191 l
129.707051 211.545123 l
132.781431 211.867387 l
135.855811 212.418233 l
138.930191 212.895935 l
142.004571 212.962621 l
145.078951 213.258557 l
148.153332 213.418528 l
151.227712 213.470945 l
154.302092 213.643101 l
157.376472 213.927886 l
160.450852 214.006392 l
163.525232 214.190782 l
166.599613 214.232461 l
169.673993 214.403313 l
172.748373 214.76926 l
175.822753 214.956688 l
178.897133 215.024011 l
181.971513 215.083825 l
185.045894 215.144609 l
188.120274 215.22399 l
191.194654 215.292936 l
194.269034 215.41048 l
197.343414 215.43703 l
200.417794 215.500376 l
203.492175 215.506103 l
206.566555 215.551743 l
209.640935 215.715643 l
212.715315 215.871605 l
215.789695 216.010338 l
218.864075 216.247304 l
221.938456 216.286788 l
225.012836 216.329039 l
228.087216 216.386913 l
231.161596 216.645974 l
234.235976 216.7272 l
237.310356 216.914103 l
240.384737 217.111919 l
243.459117 217.236924 l
246.533497 217.339961 l
249.607877 217.446512 l
252.682257 217.455516 l
255.756637 217.501363 l
258.831018 217.965018 l
261.905398 218.075149 l
264.979778 218.293136 l
268.054158 218.334083 l
271.128538 218.44283 l
274.202918 218.504474 l
277.277299 218.872648 l
280.351679 219.167376 l
283.426059 219.376168 l
286.500439 219.618113 l
289.574819 219.702966 l
292.649199 219.719606 l
295.72358 219.867916 l
298.79796 219.96478 l
301.87234 220.328278 l
304.94672 220.805422 l
308.0211 220.90219 l
311.09548 221.127575 l
314.169861 221.143737 l
317.244241 221.405694 l
320.318621 221.478744 l
323.393001 221.728165 l
326.467381 222.116766 l
329.541761 222.592924 l
332.616142 222.629417 l
335.690522 222.829937 l
338.764902 223.321001 l
341.839282 223.394098 l
344.913662 223.506059 l
347.988042 224.212024 l
351.062423 224.687482 l
354.136803 225.669101 l
357.211183 226.717199 l
360.285563 227.71584 l
363.359943 229.598583 l
stroke
grestore
1.000 0.498 0.055 setrgbcolor
gsave
334.8 217.4 43.78 37.54 clipbox
58.996307 205.892217 m
62.070687 206.584835 l
65.145067 207.046326 l
68.219447 207.200236 l
71.293827 207.275051 l
74.368208 207.624406 l
77.442588 207.646773 l
80.516968 208.242321 l
83.591348 208.351911 l
86.665728 208.380879 l
89.740108 208.487177 l
92.814489 208.528999 l
95.888869 208.637253 l
98.963249 208.666969 l
102.037629 208.734196 l
105.112009 209.071096 l
108.186389 209.564387 l
111.26077 210.042167 l
114.33515 210.11571 l
117.40953 210.43597 l
120.48391 210.559098 l
123.55829 210.820673 l
126.63267 211.010471 l
129.707051 211.028288 l
132.781431 211.03804 l
135.855811 211.140646 l
138.930191 211.30776 l
142.004571 211.413914 l
145.078951 211.509887 l
148.153332 211.718122 l
151.227712 212.040212 l
154.302092 212.109173 l
157.376472 212.374932 l
160.450852 212.603927 l
163.525232 213.032791 l
166.599613 213.057496 l
169.673993 213.05931 l
172.748373 213.096073 l
175.822753 213.116881 l
178.897133 213.19938 l
181.971513 213.376865 l
185.045894 213.495332 l
188.120274 213.547081 l
191.194654 213.585833 l
194.269034 213.624855 l
197.343414 213.75565 l
200.417794 213.756239 l
203.492175 213.860039 l
206.566555 213.91236 l
209.640935 213.954278 l
212.715315 214.468981 l
215.789695 214.543605 l
218.864075 214.575755 l
221.938456 214.813548 l
225.012836 214.97608 l
228.087216 214.999353 l
231.161596 215.044628 l
234.235976 215.258304 l
237.310356 215.348677 l
240.384737 215.56474 l
243.459117 215.615232 l
246.533497 215.870873 l
249.607877 215.916036 l
252.682257 216.028696 l
255.756637 216.420287 l
258.831018 216.621603 l
261.905398 216.856692 l
264.979778 216.968254 l
268.054158 216.991544 l
271.128538 217.092162 l
274.202918 217.178288 l
277.277299 217.376899 l
280.351679 217.878033 l
283.426059 217.888198 l
286.500439 218.525329 l
289.574819 218.674291 l
292.649199 218.80321 l
295.72358 218.869514 l
298.79796 218.960969 l
301.87234 219.042084 l
304.94672 219.072866 l
308.0211 219.07678 l
311.09548 219.183825 l
314.169861 219.394065 l
317.244241 219.659696 l
320.318621 219.914924 l
323.393001 220.726725 l
326.467381 220.765779 l
329.541761 221.256525 l
332.616142 221.694631 l
335.690522 221.846346 l
338.764902 221.951991 l
341.839282 222.708146 l
344.913662 223.174043 l
347.988042 225.192163 l
351.062423 225.890493 l
354.136803 225.946409 l
357.211183 227.585394 l
360.285563 227.731748 l
363.359943 231.098007 l
stroke
grestore
0.173 0.627 0.173 setrgbcolor
gsave
334.8 217.4 43.78 37.54 clipbox
58.996307 195.663821 m
62.070687 195.97611 l
65.145067 196.567983 l
68.219447 196.740824 l
71.293827 197.883845 l
74.368208 198.849874 l
77.442588 198.85549 l
80.516968 199.222296 l
83.591348 199.489503 l
86.665728 200.157591 l
89.740108 200.570721 l
92.814489 200.578755 l
95.888869 200.799574 l
98.963249 202.490371 l
102.037629 202.803313 l
105.112009 203.1576 l
108.186389 203.382189 l
111.26077 203.866651 l
114.33515 203.968574 l
117.40953 204.082746 l
120.48391 204.508062 l
123.55829 204.868458 l
126.63267 205.508929 l
129.707051 206.648324 l
132.781431 206.778849 l
135.855811 207.110626 l
138.930191 207.160227 l
142.004571 207.219468 l
145.078951 207.562222 l
148.153332 207.702244 l
151.227712 207.927167 l
154.302092 208.121309 l
157.376472 208.150229 l
160.450852 208.493794 l
163.525232 208.788108 l
166.599613 208.853299 l
169.673993 209.39258 l
172.748373 209.500182 l
175.822753 209.896546 l
178.897133 209.902575 l
181.971513 210.69912 l
185.045894 210.954825 l
188.120274 211.037038 l
191.194654 211.058307 l
194.269034 211.137449 l
197.343414 211.155552 l
200.417794 211.171778 l
203.492175 211.48305 l
206.566555 211.577575 l
209.640935 211.61752 l
212.715315 211.830862 l
215.789695 211.915366 l
218.864075 211.918993 l
221.938456 213.07474 l
225.012836 213.138913 l
228.087216 214.324473 l
231.161596 214.579414 l
234.235976 214.596038 l
237.310356 214.670297 l
240.384737 214.793695 l
243.459117 215.584068 l
246.533497 215.884299 l
249.607877 216.590519 l
252.682257 217.005336 l
255.756637 217.080517 l
258.831018 217.442265 l
261.905398 217.485757 l
264.979778 218.140896 l
268.054158 218.17101 l
271.128538 218.317125 l
274.202918 218.889431 l
277.277299 219.56296 l
280.351679 219.848174 l
283.426059 219.956826 l
286.500439 219.969234 l
289.574819 220.083072 l
292.649199 220.084758 l
295.72358 220.158857 l
298.79796 220.162469 l
301.87234 220.258346 l
304.94672 220.276481 l
308.0211 220.307852 l
311.09548 220.452837 l
314.169861 220.466502 l
317.244241 220.639454 l
320.318621 221.225839 l
323.393001 221.530159 l
326.467381 221.592041 l
329.541761 222.386566 l
332.616142 222.545773 l
335.690522 222.999787 l
338.764902 223.187708 l
341.839282 223.855971 l
344.913662 224.064811 l
347.988042 224.354512 l
351.062423 228.062077 l
354.136803 233.852858 l
357.211183 234.528853 l
360.285563 237.768755 l
363.359943 245.100114 l
stroke
grestore
0.839 0.153 0.157 setrgbcolor
gsave
334.8 217.4 43.78 37.54 clipbox
58.996307 212.405777 m
62.070687 212.45751 l
65.145067 212.63175 l
68.219447 212.731287 l
71.293827 212.743616 l
74.368208 212.798053 l
77.442588 212.958501 l
80.516968 212.980867 l
83.591348 213.064448 l
86.665728 213.069029 l
89.740108 213.150972 l
92.814489 213.263537 l
95.888869 213.442199 l
98.963249 213.561064 l
102.037629 213.953769 l
105.112009 214.031066 l
108.186389 214.042201 l
111.26077 214.078503 l
114.33515 214.138588 l
117.40953 214.285084 l
120.48391 214.3246 l
123.55829 214.393831 l
126.63267 214.5556 l
129.707051 214.579541 l
132.781431 214.649346 l
135.855811 214.673908 l
138.930191 214.674735 l
142.004571 214.699567 l
145.078951 214.814996 l
148.153332 214.881205 l
151.227712 214.900119 l
154.302092 215.033349 l
157.376472 215.077112 l
160.450852 215.087547 l
163.525232 215.399599 l
166.599613 215.469117 l
169.673993 215.646093 l
172.748373 215.707896 l
175.822753 215.768616 l
178.897133 215.846184 l
181.971513 216.118195 l
185.045894 216.39633 l
188.120274 216.417663 l
191.194654 216.537036 l
194.269034 216.602832 l
197.343414 216.761625 l
200.417794 216.764839 l
203.492175 216.874699 l
206.566555 216.90984 l
209.640935 216.928564 l
212.715315 217.02126 l
215.789695 217.051724 l
218.864075 217.145151 l
221.938456 217.169872 l
225.012836 217.171272 l
228.087216 217.235525 l
231.161596 217.349585 l
234.235976 217.408301 l
237.310356 217.578915 l
240.384737 217.781932 l
243.459117 217.902738 l
246.533497 217.935476 l
249.607877 218.154132 l
252.682257 218.578557 l
255.756637 218.675596 l
258.831018 218.746371 l
261.905398 218.923411 l
264.979778 218.980711 l
268.054158 219.039778 l
271.128538 219.225249 l
274.202918 219.48797 l
277.277299 219.630569 l
280.351679 219.796553 l
283.426059 219.848954 l
286.500439 219.905745 l
289.574819 219.954026 l
292.649199 219.999157 l
295.72358 220.106186 l
298.79796 220.236584 l
301.87234 220.265282 l
304.94672 220.560105 l
308.0211 220.613238 l
311.09548 220.63877 l
314.169861 220.670618 l
317.244241 220.699507 l
320.318621 220.750905 l
323.393001 221.150785 l
326.467381 221.671628 l
329.541761 221.941667 l
332.616142 222.258777 l
335.690522 222.989081 l
338.764902 223.017349 l
341.839282 223.350845 l
344.913662 223.428778 l
347.988042 224.234772 l
351.062423 224.451232 l
354.136803 224.862709 l
357.211183 224.936824 l
360.285563 225.809553 l
363.359943 226.069012 l
stroke
grestore
0.580 0.404 0.741 setrgbcolor
gsave
334.8 217.4 43.78 37.54 clipbox
58.996307 47.427386 m
62.070687 47.427386 l
65.145067 47.427386 l
68.219447 47.427386 l
71.293827 47.427386 l
74.368208 47.427386 l
77.442588 47.427386 l
80.516968 47.427386 l
83.591348 47.427386 l
86.665728 47.427386 l
89.740108 47.427386 l
92.814489 47.427386 l
95.888869 47.427386 l
98.963249 47.427386 l
102.037629 47.427386 l
105.112009 47.427386 l
108.186389 47.427386 l
111.26077 47.427386 l
114.33515 47.427386 l
117.40953 47.427386 l
120.48391 47.427386 l
123.55829 47.427386 l
126.63267 47.427386 l
129.707051 47.427386 l
132.781431 47.427386 l
135.855811 47.427386 l
138.930191 47.427386 l
142.004571 47.427386 l
145.078951 47.427386 l
148.153332 47.427386 l
151.227712 47.427386 l
154.302092 47.427386 l
157.376472 47.427386 l
160.450852 47.427386 l
163.525232 47.427386 l
166.599613 47.427386 l
169.673993 47.42739 l
172.748373 175.178171 l
175.822753 175.178171 l
178.897133 176.133144 l
181.971513 176.133144 l
185.045894 177.50987 l
188.120274 177.50987 l
191.194654 179.032217 l
194.269034 180.439709 l
197.343414 185.029389 l
200.417794 185.029405 l
203.492175 185.415874 l
206.566555 188.528178 l
209.640935 189.607996 l
212.715315 190.914266 l
215.789695 192.406038 l
218.864075 192.422344 l
221.938456 193.046876 l
225.012836 193.56581 l
228.087216 193.619245 l
231.161596 193.674907 l
234.235976 194.118836 l
237.310356 194.141521 l
240.384737 194.336378 l
243.459117 194.730992 l
246.533497 194.904977 l
249.607877 195.34512 l
252.682257 195.564793 l
255.756637 195.674065 l
258.831018 197.119243 l
261.905398 197.119243 l
264.979778 197.229199 l
268.054158 197.43761 l
271.128538 198.202434 l
274.202918 198.736132 l
277.277299 198.78279 l
280.351679 199.131557 l
283.426059 199.701922 l
286.500439 200.125488 l
289.574819 200.979732 l
292.649199 201.367903 l
295.72358 201.553024 l
298.79796 201.565942 l
301.87234 201.587751 l
304.94672 201.645195 l
308.0211 201.9072 l
311.09548 201.913452 l
314.169861 203.68398 l
317.244241 203.979057 l
320.318621 204.040033 l
323.393001 204.173708 l
326.467381 204.212984 l
329.541761 204.734767 l
332.616142 205.291069 l
335.690522 205.81562 l
338.764902 205.957996 l
341.839282 206.055242 l
344.913662 208.488608 l
347.988042 210.607792 l
351.062423 211.348548 l
354.136803 212.191274 l
357.211183 212.984319 l
360.285563 214.310235 l
363.359943 222.603296 l
stroke
grestore
1.000 0.000 0.000 setrgbcolor
gsave
334.8 217.4 43.78 37.54 clipbox
357.211183 226.717199 m
360.285563 227.71584 l
363.359943 229.598583 l
stroke
grestore
gsave
334.8 217.4 43.78 37.54 clipbox
/o {
gsave
newpath
translate
-0.49999 -0.49999 m
0.50001 -0.49999 l
0.50001 0.50001 l
-0.49999 0.50001 l
cl

1.000 0.000 0.000 setrgbcolor
fill
grestore
} bind def
357.211 226.717 o
360.286 227.716 o
363.36 229.599 o
grestore
gsave
334.8 217.4 43.78 37.54 clipbox
360.285563 227.731748 m
363.359943 231.098007 l
stroke
grestore
1.000 setlinewidth
0 setlinecap
gsave
334.8 217.4 43.78 37.54 clipbox
/o {
gsave
newpath
translate
1.0 setlinewidth
1 setlinejoin
0 setlinecap
-3 0 m
3 0 l
0 -3 m
0 3 l

gsave
1.000 0.000 0.000 setrgbcolor
fill
grestore
stroke
grestore
} bind def
360.286 227.732 o
363.36 231.098 o
grestore
1.500 setlinewidth
2 setlinecap
gsave
334.8 217.4 43.78 37.54 clipbox
363.359943 245.100114 m
stroke
grestore
1.000 setlinewidth
0 setlinecap
gsave
334.8 217.4 43.78 37.54 clipbox
/o {
gsave
newpath
translate
1.0 setlinewidth
1 setlinejoin
0 setlinecap
0 -1.5 m
0.397805 -1.5 0.77937 -1.341951 1.06066 -1.06066 c
1.341951 -0.77937 1.5 -0.397805 1.5 0 c
1.5 0.397805 1.341951 0.77937 1.06066 1.06066 c
0.77937 1.341951 0.397805 1.5 0 1.5 c
-0.397805 1.5 -0.77937 1.341951 -1.06066 1.06066 c
-1.341951 0.77937 -1.5 0.397805 -1.5 0 c
-1.5 -0.397805 -1.341951 -0.77937 -1.06066 -1.06066 c
-0.77937 -1.341951 -0.397805 -1.5 0 -1.5 c
cl

gsave
1.000 0.000 0.000 setrgbcolor
fill
grestore
stroke
grestore
} bind def
363.36 245.1 o
grestore
1.500 setlinewidth
2 setlinecap
gsave
334.8 217.4 43.78 37.54 clipbox
357.211183 224.936824 m
360.285563 225.809553 l
363.359943 226.069012 l
stroke
grestore
1.000 setlinewidth
0 setlinecap
gsave
334.8 217.4 43.78 37.54 clipbox
/o {
gsave
newpath
translate
1.0 setlinewidth
1 setlinejoin
0 setlinecap
0 -3 m
0.795609 -3 1.55874 -2.683901 2.12132 -2.12132 c
2.683901 -1.55874 3 -0.795609 3 0 c
3 0.795609 2.683901 1.55874 2.12132 2.12132 c
1.55874 2.683901 0.795609 3 0 3 c
-0.795609 3 -1.55874 2.683901 -2.12132 2.12132 c
-2.683901 1.55874 -3 0.795609 -3 0 c
-3 -0.795609 -2.683901 -1.55874 -2.12132 -2.12132 c
-1.55874 -2.683901 -0.795609 -3 0 -3 c
cl

gsave
1.000 0.000 0.000 setrgbcolor
fill
grestore
stroke
grestore
} bind def
357.211 224.937 o
360.286 225.81 o
363.36 226.069 o
grestore
1.500 setlinewidth
2 setlinecap
gsave
334.8 217.4 43.78 37.54 clipbox
363.359943 222.603296 m
stroke
grestore
1.000 setlinewidth
2 setlinejoin
0 setlinecap
gsave
334.8 217.4 43.78 37.54 clipbox
/o {
gsave
newpath
translate
1.0 setlinewidth
2 setlinejoin
0 setlinecap
0 3 m
-0.673542 0.927051 l
-2.85317 0.927051 l
-1.089814 -0.354102 l
-1.763356 -2.427051 l
-0 -1.145898 l
1.763356 -2.427051 l
1.089814 -0.354102 l
2.85317 0.927051 l
0.673542 0.927051 l
cl

gsave
1.000 0.000 0.000 setrgbcolor
fill
grestore
stroke
grestore
} bind def
363.36 222.603 o
grestore
0.800 setlinewidth
0 setlinejoin
2 setlinecap
[] 0 setdash
0.000 setgray
gsave
43.778125 37.54375 m
43.778125 254.98375 l
stroke
grestore
gsave
378.578125 37.54375 m
378.578125 254.98375 l
stroke
grestore
gsave
43.778125 37.54375 m
378.578125 37.54375 l
stroke
grestore
gsave
43.778125 254.98375 m
378.578125 254.98375 l
stroke
grestore
/DejaVuSans findfont
12.000 scalefont
setfont
gsave
124.998438 260.983750 translate
0.000000 rotate
0.000000 0.000000 m /E glyphshow
7.582031 0.000000 m /v glyphshow
14.683594 0.000000 m /i glyphshow
18.017578 0.000000 m /d glyphshow
25.634766 0.000000 m /e glyphshow
33.017578 0.000000 m /n glyphshow
40.623047 0.000000 m /c glyphshow
47.220703 0.000000 m /e glyphshow
54.603516 0.000000 m /space glyphshow
58.417969 0.000000 m /s glyphshow
64.669922 0.000000 m /h glyphshow
72.275391 0.000000 m /o glyphshow
79.617188 0.000000 m /w glyphshow
89.431641 0.000000 m /n glyphshow
97.037109 0.000000 m /space glyphshow
100.851562 0.000000 m /i glyphshow
104.185547 0.000000 m /n glyphshow
111.791016 0.000000 m /space glyphshow
115.605469 0.000000 m /S glyphshow
123.222656 0.000000 m /i glyphshow
126.556641 0.000000 m /m glyphshow
138.246094 0.000000 m /i glyphshow
141.580078 0.000000 m /l glyphshow
144.914062 0.000000 m /a glyphshow
152.267578 0.000000 m /r glyphshow
157.201172 0.000000 m /i glyphshow
160.535156 0.000000 m /t glyphshow
165.240234 0.000000 m /y glyphshow
grestore

end
showpage
